%YAML 1.1
%TAG !u! tag:unity3d.com,2011:
--- !u!78 &1
TagManager:
  serializedVersion: 2
  tags:
  - EndOfLevel
  - Enemy
  - Stepper
  - MainCharacter
  - Limit
  - Upgrade
  - End
  - DeadZone
  - MegaUpgrade
  - FireBall
  - CheckPoint
  - Coin
  layers:
  - Default
  - TransparentFX
  - Ignore Raycast
  - Ground
  - Water
  - UI
  - MainCahacter
  - Enemy
  - Limit
  - FireBall
  - 
  - 
  - 
  - 
  - 
  - 
  - 
  - 
  - 
  - 
  - 
  - 
  - 
  - 
  - 
  - 
  - 
  - 
  - 
  - 
  - 
  - 
  m_SortingLayers:
  - name: Default
    uniqueID: 0
    locked: 0
